{
    "events": [{
            "location": "San Francisco, CA",
            "date": "May 1",
            "map": "img/map-ca.png",
            "members": ["Vip", "Crew "]
        },
        {
            "location": "Austin, TX",
            "date": "May 15",
            "map": "img/map-tx.png"
        },
        {
            "location": "New York, NY",
            "date": "May 30",
            "map": "img/map-ny.png"
        }
    ]
}